Anker Jørgensen 1973
…
Anker_df <- data.frame(Anker_text) %>% 
  mutate(text_full = str_split(Anker_text, pattern = '\n')) %>% 
  unnest(text_full) %>% 
  mutate(text_full = str_trim(text_full)) 

# More information: https://cran.r-project.org/web/packages/stringr/vignettes/regular-expressions.html

opdelling af kolonner i tokens

Anker_tokens <- Anker_df %>% 
  unnest_tokens(word, text_full)
Anker_tokens

## # A tibble: 1,592 × 2
##    Anker_text                                                              word 
##    <chr>                                                                   <chr>
##  1 "     Anker Jørgensens nytårstale\n     Taler                       Da… anker
##  2 "     Anker Jørgensens nytårstale\n     Taler                       Da… jørg…
##  3 "     Anker Jørgensens nytårstale\n     Taler                       Da… nytå…
##  4 "     Anker Jørgensens nytårstale\n     Taler                       Da… taler
##  5 "     Anker Jørgensens nytårstale\n     Taler                       Da… dato 
##  6 "     Anker Jørgensens nytårstale\n     Taler                       Da… anker
##  7 "     Anker Jørgensens nytårstale\n     Taler                       Da… jørg…
##  8 "     Anker Jørgensens nytårstale\n     Taler                       Da… 1    
##  9 "     Anker Jørgensens nytårstale\n     Taler                       Da… janu…
## 10 "     Anker Jørgensens nytårstale\n     Taler                       Da… 1973 
## # ℹ 1,582 more rows

# See how this differs from `Anker_pdf`
# Each word has its own row! 

optælling af ordene

Anker_wc <- Anker_tokens %>% 
  count(word) %>% 
  arrange(-n)
Anker_wc

## # A tibble: 735 × 2
##    word      n
##    <chr> <int>
##  1 i        60
##  2 og       54
##  3 at       41
##  4 vi       35
##  5 det      32
##  6 de       29
##  7 den      26
##  8 en       26
##  9 for      25
## 10 af       24
## # ℹ 725 more rows
…
de mest hyppige ord i wordcloud

length(unique(Anker_no_numeric$word)) 

## [1] 677

Anker_top100 <- Anker_no_numeric %>% 
  count(word) %>% 
  arrange(-n) %>% 
  head(100)
Anker_top100

## # A tibble: 100 × 2
##    word      n
##    <chr> <int>
##  1 og       54
##  2 vi       35
##  3 det      32
##  4 de       29
##  5 den      26
##  6 en       26
##  7 af       24
##  8 er       24
##  9 jeg      21
## 10 der      20
## # ℹ 90 more rows
…
Sentiment analyse med AFINN_da

AFINN_da af Finn Årup Nielsen

“afinn_da”: rangering fra de 5 mest posetive til de 5 mest
negative

afinn <- read_csv2("data/AFINN_da.csv")

AFINN_da_pos <- afinn %>% 
  filter(value %in% c(3,4,5))

AFINN_da_pos  

## # A tibble: 316 × 2
##    word        value
##    <chr>       <dbl>
##  1 bedste          3
##  2 begejstre       4
##  3 begejstrede     4
##  4 begejstrer      4
##  5 begejstres      4
##  6 begejstret      4
##  7 betagende       5
##  8 betaget         3
##  9 beundre         3
## 10 beundrede       3
## # ℹ 306 more rows

Sentiment analyse med afinn_da:

Anker.pdf med måling af værdier som både er posetiver og
negativer

Anker_tokens %>% distinct(word)

## # A tibble: 735 × 1
##    word         
##    <chr>        
##  1 anker        
##  2 jørgensens   
##  3 nytårstale   
##  4 taler        
##  5 dato         
##  6 jørgensen    
##  7 1            
##  8 januar       
##  9 1973         
## 10 statsminister
## # ℹ 725 more rows

Anker_afinn <- Anker_stop %>% 
  inner_join(afinn)
Anker_afinn

## # A tibble: 97 × 2
##    word    value
##    <chr>   <dbl>
##  1 optaget    -1
##  2 ombord      1
##  3 døde       -3
##  4 råddent    -3
##  5 ønskede     2
##  6 slaver     -2
##  7 nej        -1
##  8 fri         1
##  9 vold       -3
## 10 kampe      -1
## # ℹ 87 more rows
…
