Lars Løkke Rasmussens 2016
…
Splittelse af linjerne

Lars_df <- data.frame(Lars_text) %>% 
  mutate(text_full = str_split(Lars_text, pattern = '\n')) %>% 
  unnest(text_full) %>% 
  mutate(text_full = str_trim(text_full))  

opdelling af kolonner i tokens

Lars_tokens <- Lars_df %>% 
  unnest_tokens(word, text_full)
Lars_tokens

## # A tibble: 2,147 × 2
##    Lars_text                                                               word 
##    <chr>                                                                   <chr>
##  1 "07.05.2025, 10.52                                       Lars Løkke Ra… 07.0…
##  2 "07.05.2025, 10.52                                       Lars Løkke Ra… 10.52
##  3 "07.05.2025, 10.52                                       Lars Løkke Ra… lars 
##  4 "07.05.2025, 10.52                                       Lars Løkke Ra… løkke
##  5 "07.05.2025, 10.52                                       Lars Løkke Ra… rasm…
##  6 "07.05.2025, 10.52                                       Lars Løkke Ra… nytå…
##  7 "07.05.2025, 10.52                                       Lars Løkke Ra… 1    
##  8 "07.05.2025, 10.52                                       Lars Løkke Ra… janu…
##  9 "07.05.2025, 10.52                                       Lars Løkke Ra… 2016 
## 10 "07.05.2025, 10.52                                       Lars Løkke Ra… rege…
## # ℹ 2,137 more rows

optælling af ord

Lars_wc <- Lars_tokens %>% 
  count(word) %>% 
  arrange(-n)
Lars_wc

## # A tibble: 721 × 2
##    word      n
##    <chr> <int>
##  1 og       81
##  2 vi       79
##  3 i        62
##  4 det      54
##  5 at       50
##  6 på       46
##  7 er       44
##  8 for      43
##  9 til      43
## 10 skal     31
## # ℹ 711 more rows
…
de mest hyppige ord i wordcloud

length(unique(Lars_no_numeric$word))

## [1] 699

Lars_top100 <- Lars_no_numeric %>% 
  count(word) %>% 
  arrange(-n) %>% 
  head(100)
Lars_top100

## # A tibble: 100 × 2
##    word        n
##    <chr>   <int>
##  1 og         81
##  2 vi         79
##  3 det        54
##  4 på         46
##  5 er         44
##  6 til        43
##  7 skal       31
##  8 der        25
##  9 danmark    21
## 10 de         21
## # ℹ 90 more rows
…
AFINN_da from Finn Årup Nielsen,

“afinn_da”: rangering fra de 5 mest posetive til de 5 mest
negative

afinn <- read_csv2("data/AFINN_da.csv")

AFINN_da_pos <- afinn %>% 
  filter(value %in% c(3,4,5))

AFINN_da_pos 

## # A tibble: 316 × 2
##    word        value
##    <chr>       <dbl>
##  1 bedste          3
##  2 begejstre       4
##  3 begejstrede     4
##  4 begejstrer      4
##  5 begejstres      4
##  6 begejstret      4
##  7 betagende       5
##  8 betaget         3
##  9 beundre         3
## 10 beundrede       3
## # ℹ 306 more rows

Sentiment analyse med afinn_da:

Anker.pdf med måling af værdier som både er posetiver og
negativer

Lars_tokens %>% distinct(word)

## # A tibble: 721 × 1
##    word         
##    <chr>        
##  1 07.05.2025   
##  2 10.52        
##  3 lars         
##  4 løkke        
##  5 rasmussens   
##  6 nytårstale   
##  7 1            
##  8 januar       
##  9 2016         
## 10 regeringen.dk
## # ℹ 711 more rows

Lars_afinn <- Lars_stop %>% 
  inner_join(afinn)
Lars_afinn

## # A tibble: 147 × 2
##    word     value
##    <chr>    <dbl>
##  1 god          3
##  2 angrebet    -1
##  3 alene       -1
##  4 godhed       3
##  5 godhed       3
##  6 godhed       3
##  7 drab        -3
##  8 angreb      -1
##  9 angreb      -1
## 10 blodige     -3
## # ℹ 137 more rows
…
